<svg xmlns="http://www.w3.org/2000/svg" viewBox="58 444.363 26.705 41.072">
  <defs>
    <style>
      .cls-1 {
        fill: #0094e7;
      }
    </style>
  </defs>
  <g id="Group_15" data-name="Group 15" transform="translate(58 444.363)">
    <path id="Path_18" data-name="Path 18" class="cls-1" d="M13.353-84.435C9.324-71.328,0-66.537,0-57.317A13.652,13.652,0,0,0,13.353-43.363,13.652,13.652,0,0,0,26.7-57.317C26.7-66.537,17.38-71.328,13.353-84.435ZM2.612-57.317c0-3.585,1.8-6.505,4.231-9.952-1.629,6.512-.921,15.382,5.234,21.211A11.126,11.126,0,0,1,2.612-57.317Z" transform="translate(0 84.435)"/>
  </g>
</svg>
