<svg xmlns="http://www.w3.org/2000/svg" viewBox="53 525.839 37.341 38.748">
  <defs>
    <style>
      .cls-1 {
        fill: #0094e7;
      }
    </style>
  </defs>
  <g id="Group_16" data-name="Group 16" transform="translate(53 525.839)">
    <path id="Path_19" data-name="Path 19" class="cls-1" d="M35.619-37.256A1.117,1.117,0,0,1,34.5-36.141H2.837a1.116,1.116,0,0,1-1.115-1.115V-61.788h33.9ZM34.5-70.247H31.792v-1.147a1.774,1.774,0,0,0-1.773-1.773,1.773,1.773,0,0,0-1.774,1.773v1.147H26.117v-1.147a1.773,1.773,0,0,0-1.773-1.773,1.773,1.773,0,0,0-1.773,1.773v1.147H20.444v-1.147a1.773,1.773,0,0,0-1.773-1.773A1.773,1.773,0,0,0,16.9-71.394v1.147H14.77v-1.147A1.773,1.773,0,0,0,13-73.167a1.773,1.773,0,0,0-1.773,1.773v1.147H9.1v-1.147a1.774,1.774,0,0,0-1.774-1.773,1.773,1.773,0,0,0-1.773,1.773v1.147H2.837A2.838,2.838,0,0,0,0-67.409v30.153a2.837,2.837,0,0,0,2.837,2.837H34.5a2.837,2.837,0,0,0,2.837-2.837V-67.409A2.838,2.838,0,0,0,34.5-70.247Z" transform="translate(0 73.167)"/>
    <path id="Path_20" data-name="Path 20" class="cls-1" d="M20.209-43.056h2.784a.861.861,0,0,0,.861-.861v-2.29a.861.861,0,0,0-.861-.862H20.209a.861.861,0,0,0-.861.862v2.29A.861.861,0,0,0,20.209-43.056Z" transform="translate(-9.102 60.89)"/>
    <path id="Path_21" data-name="Path 21" class="cls-1" d="M31.862-43.056h2.784a.861.861,0,0,0,.862-.861v-2.29a.861.861,0,0,0-.862-.862H31.862a.861.861,0,0,0-.862.862v2.29A.861.861,0,0,0,31.862-43.056Z" transform="translate(-14.583 60.89)"/>
    <path id="Path_22" data-name="Path 22" class="cls-1" d="M43.515-43.056H46.3a.861.861,0,0,0,.861-.861v-2.29a.861.861,0,0,0-.861-.862H43.515a.861.861,0,0,0-.861.862v2.29A.861.861,0,0,0,43.515-43.056Z" transform="translate(-20.065 60.89)"/>
    <path id="Path_23" data-name="Path 23" class="cls-1" d="M55.167-43.056h2.784a.861.861,0,0,0,.861-.861v-2.29a.861.861,0,0,0-.861-.862H55.167a.861.861,0,0,0-.861.862v2.29A.861.861,0,0,0,55.167-43.056Z" transform="translate(-25.547 60.89)"/>
    <path id="Path_24" data-name="Path 24" class="cls-1" d="M8.557-32.362h2.784a.861.861,0,0,0,.861-.861v-2.291a.861.861,0,0,0-.861-.862H8.557a.861.861,0,0,0-.861.862v2.291A.861.861,0,0,0,8.557-32.362Z" transform="translate(-3.62 55.859)"/>
    <path id="Path_25" data-name="Path 25" class="cls-1" d="M20.209-32.362h2.784a.861.861,0,0,0,.861-.861v-2.291a.861.861,0,0,0-.861-.862H20.209a.861.861,0,0,0-.861.862v2.291A.861.861,0,0,0,20.209-32.362Z" transform="translate(-9.102 55.859)"/>
    <path id="Path_26" data-name="Path 26" class="cls-1" d="M31.862-32.362h2.784a.861.861,0,0,0,.862-.861v-2.291a.862.862,0,0,0-.862-.862H31.862a.862.862,0,0,0-.862.862v2.291A.861.861,0,0,0,31.862-32.362Z" transform="translate(-14.583 55.859)"/>
    <path id="Path_27" data-name="Path 27" class="cls-1" d="M43.515-32.362H46.3a.861.861,0,0,0,.861-.861v-2.291a.861.861,0,0,0-.861-.862H43.515a.861.861,0,0,0-.861.862v2.291A.861.861,0,0,0,43.515-32.362Z" transform="translate(-20.065 55.859)"/>
    <path id="Path_28" data-name="Path 28" class="cls-1" d="M55.167-32.362h2.784a.861.861,0,0,0,.861-.861v-2.291a.861.861,0,0,0-.861-.862H55.167a.861.861,0,0,0-.861.862v2.291A.861.861,0,0,0,55.167-32.362Z" transform="translate(-25.547 55.859)"/>
    <path id="Path_29" data-name="Path 29" class="cls-1" d="M8.557-21.658h2.784a.861.861,0,0,0,.861-.861v-2.29a.861.861,0,0,0-.861-.861H8.557a.861.861,0,0,0-.861.861v2.29A.861.861,0,0,0,8.557-21.658Z" transform="translate(-3.62 50.823)"/>
    <path id="Path_30" data-name="Path 30" class="cls-1" d="M20.209-21.658h2.784a.861.861,0,0,0,.861-.861v-2.29a.861.861,0,0,0-.861-.861H20.209a.861.861,0,0,0-.861.861v2.29A.861.861,0,0,0,20.209-21.658Z" transform="translate(-9.102 50.823)"/>
    <path id="Path_31" data-name="Path 31" class="cls-1" d="M31.862-21.658h2.784a.861.861,0,0,0,.862-.861v-2.29a.861.861,0,0,0-.862-.861H31.862a.861.861,0,0,0-.862.861v2.29A.861.861,0,0,0,31.862-21.658Z" transform="translate(-14.583 50.823)"/>
    <path id="Path_32" data-name="Path 32" class="cls-1" d="M43.515-21.658H46.3a.861.861,0,0,0,.861-.861v-2.29a.861.861,0,0,0-.861-.861H43.515a.861.861,0,0,0-.861.861v2.29A.861.861,0,0,0,43.515-21.658Z" transform="translate(-20.065 50.823)"/>
    <path id="Path_33" data-name="Path 33" class="cls-1" d="M55.167-21.658h2.784a.861.861,0,0,0,.861-.861v-2.29a.861.861,0,0,0-.861-.861H55.167a.861.861,0,0,0-.861.861v2.29A.861.861,0,0,0,55.167-21.658Z" transform="translate(-25.547 50.823)"/>
    <path id="Path_34" data-name="Path 34" class="cls-1" d="M8.557-10.819h2.784a.861.861,0,0,0,.861-.861V-13.97a.861.861,0,0,0-.861-.861H8.557a.861.861,0,0,0-.861.861v2.291A.861.861,0,0,0,8.557-10.819Z" transform="translate(-3.62 45.724)"/>
    <path id="Path_35" data-name="Path 35" class="cls-1" d="M20.209-10.819h2.784a.861.861,0,0,0,.861-.861V-13.97a.861.861,0,0,0-.861-.861H20.209a.861.861,0,0,0-.861.861v2.291A.861.861,0,0,0,20.209-10.819Z" transform="translate(-9.102 45.724)"/>
    <path id="Path_36" data-name="Path 36" class="cls-1" d="M31.862-10.819h2.784a.861.861,0,0,0,.862-.861V-13.97a.861.861,0,0,0-.862-.861H31.862A.861.861,0,0,0,31-13.97v2.291A.861.861,0,0,0,31.862-10.819Z" transform="translate(-14.583 45.724)"/>
    <path id="Path_37" data-name="Path 37" class="cls-1" d="M43.515-10.819H46.3a.861.861,0,0,0,.861-.861V-13.97a.861.861,0,0,0-.861-.861H43.515a.861.861,0,0,0-.861.861v2.291A.861.861,0,0,0,43.515-10.819Z" transform="translate(-20.065 45.724)"/>
  </g>
</svg>
