<?xml version="1.0" encoding="UTF-8" standalone="no"?>
<!DOCTYPE svg PUBLIC "-//W3C//DTD SVG 1.1//EN" "http://www.w3.org/Graphics/SVG/1.1/DTD/svg11.dtd">
<svg width="100%" height="100%" viewBox="0 0 44 37" version="1.1" xmlns="http://www.w3.org/2000/svg" xmlns:xlink="http://www.w3.org/1999/xlink" xml:space="preserve" style="fill-rule:evenodd;clip-rule:evenodd;stroke-linejoin:round;stroke-miterlimit:1.41421;">
    <g transform="matrix(1.51692,0,0,1.51692,-9.37761,-11.9155)">
        <g id="Group_14">
            <g>
                <g transform="matrix(0.613603,0,0,0.613603,-105.896,-159.165)">
                    <path d="M205.831,295.483C208.919,295.483 211.422,292.981 211.422,289.894C211.422,286.807 208.919,284.304 205.831,284.304C202.744,284.304 200.241,286.807 200.241,289.894C200.241,292.981 202.744,295.483 205.831,295.483Z" style="fill:rgb(0,148,231);fill-rule:nonzero;"/>
                </g>
                <g transform="matrix(0.822492,0,0,1,1.89944,-0.988477)">
                    <path d="M40,15.38C40,15.17 39.793,15 39.538,15L5.668,15C5.414,15 5.207,15.17 5.207,15.38C5.207,15.589 5.414,15.759 5.668,15.759L39.538,15.759C39.793,15.759 40,15.589 40,15.38Z" style="fill:rgb(0,148,231);"/>
                </g>
                <g transform="matrix(1,0,0,1,0,-1.00797)">
                    <path d="M34,11.75C34,11.336 33.664,11 33.25,11L31.75,11C31.336,11 31,11.336 31,11.75L31,19.048C31,19.462 31.336,19.798 31.75,19.798L33.25,19.798C33.664,19.798 34,19.462 34,19.048L34,11.75Z" style="fill:rgb(0,148,231);"/>
                </g>
                <g transform="matrix(1,0,0,1,0,-1.00797)">
                    <path d="M34,11.75C34,11.336 33.664,11 33.25,11L31.75,11C31.336,11 31,11.336 31,11.75L31,19.048C31,19.462 31.336,19.798 31.75,19.798L33.25,19.798C33.664,19.798 34,19.462 34,19.048L34,11.75Z" style="fill:rgb(0,148,231);"/>
                </g>
                <g transform="matrix(-0.914479,0,0,-0.914479,42.6717,34.8618)">
                    <path d="M20.653,9.431L20.653,13.258L17.283,15.969C17.179,16.022 17.109,16.157 17.124,16.271L18.802,22.422C18.923,23.337 18.277,24.176 17.363,24.297C16.447,24.417 15.608,23.773 15.488,22.858L13.784,15.721C13.708,15.15 14.061,14.468 14.571,14.199L20.468,9.476L20.653,9.431Z" style="fill:rgb(0,148,231);"/>
                </g>
                <g transform="matrix(0.914479,0,0,0.914479,-0.0857506,13.1675)">
                    <path d="M18.653,20L18.653,10.431L18.862,10.379L25.923,10.379L26.155,10.469L26.155,14.945L26.131,14.924L26.131,20L18.653,20Z" style="fill:rgb(0,148,231);"/>
                </g>
                <g transform="matrix(-1,0,0,1,40.9904,-1.00797)">
                    <path d="M34,11.75C34,11.336 33.664,11 33.25,11L31.75,11C31.336,11 31,11.336 31,11.75L31,19.048C31,19.462 31.336,19.798 31.75,19.798L33.25,19.798C33.664,19.798 34,19.462 34,19.048L34,11.75Z" style="fill:rgb(0,148,231);"/>
                </g>
                <g transform="matrix(0.914479,0,0,-0.914479,-1.68138,34.8618)">
                    <path d="M20.653,9.431L20.653,13.258L17.283,15.969C17.179,16.022 17.109,16.157 17.124,16.271L18.802,22.422C18.923,23.337 18.277,24.176 17.363,24.297C16.447,24.417 15.608,23.773 15.488,22.858L13.784,15.721C13.708,15.15 14.061,14.468 14.571,14.199L20.468,9.476L20.653,9.431Z" style="fill:rgb(0,148,231);"/>
                </g>
            </g>
        </g>
    </g>
</svg>
