<svg xmlns="http://www.w3.org/2000/svg" viewBox="-269.587 43.122 24.625 15.006">
  <defs>
    <style>
      .cls-1 {
        fill: #fff;
        fill-rule: evenodd;
      }
    </style>
  </defs>
  <path id="icn-arrow-up" class="cls-1" d="M23.006,8.873,20.167,6,8,18.313,20.167,30.625l2.839-2.873-9.328-9.44Z" transform="translate(-238.962 35.122) rotate(90)"/>
</svg>
